{
  "locales": ["id-ID", "en"],
  "defaultLocale": "id-ID",
  "pages": {
    "*": [
      "common",
      "hashtags",
      "archillect",
      "hashflags",
      "credits",
      "memesound",
      "projects",
      "domains",
      "license",
      "tools",
      "redditwallpaper"
    ]
  }
}
